{
	"ascreen" : 
	{
		"background" : "mainsetting.bin",
		"menu_type" : "image",
		"page_name" : "dxg_manager",
		"page_title" : "",
		"src_height" : 800,
		"src_width" : 480
	},
	"iconlist" : 
	{
		"0-i" : 
		{
			"Function" : "back",
			"Link" : "",
			"POS" : 
			{
				"Height" : 80,
				"Pos.x" : 2,
				"Pos.y" : 3,
				"Width" : 158
			},
			"type" : "IMG_Icon"
		},
		"1-t" : 
		{
			"POS" : 
			{
				"Height" : 60,
				"Pos.x" : 147,
				"Pos.y" : 236,
				"Width" : 180
			},
			"TEXT" : 
			{
				"Label_text" : "test",
				"text_color" : 16777215,
				"text_size" : 2
			},
			"type" : "IMG_Label"
		}
	}
}
