{
	"ascreen": {
		"background": "namelist11.bin",
		"menu_type": "image",
		"page_name": "namelist",
		"page_title": "",
		"src_height": 800,
		"src_width": 480
	},
	"iconlist": {		
		"nameList_list": {
			"POS": {
				"Height": 800,
				"Pos.x": 0,
				"Pos.y": 0,
				"Width": 480
			},
			"type": "IMG_List"
		}
	}
}
