{
    "PB":{
        "001":{
            "Name":"MFG_SN",
            "Display":"SN"
        },
        "002":{
            "Name":"DEV_NAME",
            "Display":"name"
        },
        "003":{
            "Name":"FW_VER"
        },
        "004":{
            "Name":"DEBUG_STATE",
            "Display":"debug"
        },
        "005":{
            "Name":"IPC_AUTO_CONFIG"
        }
    },
    "IO":{
        "001":{
            "Name":"IXD_AutoLogin",
            "Display":"XD_A"
        },
        "002":{
            "Name":"WIFI_SWITCH",
            "Display":"WF_S"
        },
        "003":{
            "Name":"IX_NAME",
            "Display":"Name"
        },
        "004":{
            "Name":"HOME_KEY_IX_CALL_NBR",
            "Display":"C_NBR"
        },
        "005":{
            "Name":"IX_ADDR",
            "Display":"ADDR"
        },
        "006":{
            "Name":"PRJ_PWD",
            "Display":"M_PWD"
        },
        "007":{
            "Name":"VOICE_VOLUME_IOID",
            "Display":"VOLUME"
        },
        "008":{
            "Name":"BL_ON_ALAWYS",
            "Display":"BL_ON"
        },
        "009":{
            "Name":"NightvisionLevel",
            "Display":"NV_LEV"
        },
        "901":{
            "Name":"Unlock1Pwd1",
            "Display":"L1P1"
        },
        "902":{
            "Name":"Unlock1Pwd2",
            "Display":"L1P2"
        },
        "903":{
            "Name":"Unlock2Pwd1",
            "Display":"L2P1"
        },
        "904":{
            "Name":"Unlock2Pwd2",
            "Display":"L2P2"
        },
        "905":{
            "Name":"RL1_TIMER",
            "Display":"L1_T"
        },
        "906":{
            "Name":"RL2_TIMER",
            "Display":"L2_T"
        },    
        "907":{
            "Name":"RL1_MODE",
            "Display":"L1_M"
        },
        "908":{
            "Name":"RL2_MODE",
            "Display":"L2_M"
        }    
    },
    "OTHERS":{
        "9101":{
            "Callback":"SettingCodeFirmwareUpdate",
            "Display":"UPDATE"
        },
        "9102":{
            "Callback":"SettingCodeFactoryDefault",
            "Display":"F_DEF"
        },
        "9103":{
            "Callback":"SettingCodeReboot",
            "Display":"REBOOT"
        },
        "9104":{
            "ConvertCode":"2006"
        },
        "9105":{
            "ConvertCode":"2005"
        },
        "9106":{
            "ConvertCode":"2003"
        },
        "9109":{
            "Callback":"SettingCodeUpdate",
            "Display":"UPDATE"
        },
        "9201":{
            "Callback":"SettingCodeCheckNetwork",
            "Display":"NET_S"
        },
        "9202":{
            "Callback":"SettingCodeCheckIP_Policy",
            "Display":"NET_S"
        },
        "9203":{
            "Callback":"SettingCodePing",
            "Display":"PING"
        },
        "9204":{
            "Callback":"SettingCodeSetLanIp",
            "Display":"IP"
        },
        "9205":{
            "Callback":"SettingCodeSetLanSubnetMask",
            "Display":"MASK"
        },
        "9206":{
            "Callback":"SettingCodeSetLanRoute",
            "Display":"ROUTE"
        },
        "9207":{
            "Callback":"SettingCodeSetAutoIpMask",
            "Display":"A_MASK"
        },
        "9208":{
            "Callback":"SettingCodeSetAutoIpGateway",
            "Display":"A_GATE"
        },
        "9209":{
            "Callback":"SettingCodeSetAutoIpSegment",
            "Display":"A_SEG"
        },
        "9210":{
            "Callback":"SettingCodeSetIP_Policy",
            "Display":"IP_P"
        },
        "9211":{
            "Callback":"SettingCodeRestoreLan",
            "Display":"LAN_R"
        },
	    "9212":{
            "Callback":"SettingCodeSetVoiceLanguage",
            "Display":"Promt"
        },	
        "9301":{
            "ConvertCode":"2901"
        },
        "9302":{
            "ConvertCode":"2902"
        },
        "9303":{
            "ConvertCode":"2903"
        },
        "9304":{
            "ConvertCode":"2904"
        },

        "9305":{
            "Callback":"SetPrivatePwd",
            "Display":"P_PWD"
        },

        "9306":{
            "ConvertCode":"2907"
        },
        "9307":{
            "ConvertCode":"2905"
        },
        "9308":{
            "ConvertCode":"2908"
        },
        "9309":{
            "ConvertCode":"2906"
        },
        "9310":{
            "ConvertCode":"2007"
        },
	 "9311":{
            "ConvertCode":"2009"
        },
        "9401":{
            "Callback":"SettingCodeCall",
            "Display":"CALL"
        },

        "9901":{
            "ConvertCode":"2004"
        },
        "9902":{
            "ConvertCode":"2008"
        }
    }
}