{
  "PARA_PID":"DH850P",
  "REV_PID":"2023-4-14 last modified",
  "DEV_NAME":"DH850P",
  "DEV_MODEL":"DH-DS",
  "CUS_DEV_NAME":"DH850P",
  "CUS_DEV_MODEL":"DH-DS",
  "FWVersionAndVerify":"{\"Device type\":\"DH850P\",\"Code info\":\"DH850P STD F/W\",\"Code size\":20405924,\"App Code\":\"947000\",\"App Ver\":\"V1.0.0.1911251030\"}",
  "UI_Documents": "MenuPage_Config",
  "IX_ADDR":"0099000001",
  "IX_NAME":"DH850P",
"NOT_USED":[
      "CUS_DEV_NAME",
      "CUS_DEV_MODEL"
  ],
  "AU-NORM":[
            {
                "MIC_VOLUME_PHY":-10,
                "MIC_GAIN_PHY":3,
                "SPK_VOLUME_PHY":0,
                "SPK_GAIN_PHY":3
            },
            {
                "MIC_VOLUME_PHY":-10,
                "MIC_GAIN_PHY":3,
                "SPK_VOLUME_PHY":0,
                "SPK_GAIN_PHY":4
            },
            {
                "MIC_VOLUME_PHY":-10,
                "MIC_GAIN_PHY":3,
                "SPK_VOLUME_PHY":-15,
                "SPK_GAIN_PHY":5
            }
        ],
    "VIDEO_DISPLAY_BRIGHT":6,
	"VIDEO_DISPLAY_COLOR":8,
	"VIDEO_DISPLAY_CONTRACT":5,
	"HAL_EVENT_EXIT_KEY2":"{\"EventName\":\"EventLockReq\",\"LOCK_NBR\":\"RL2\",\"LOCK_PROCESS\":true,\"TIME\":0}",
	"IO_SENSOR_TYPE":3,
    "SysType":"DH-APT",
    "UpdateServer": "47.106.104.38",
    "UpdateCode": "850P-FW",
    "LastUpdateTime": "2024-09-14",
    "LastUpdateCode": "850P-FW",
    "ELOG_FILE_SIZE": 0,
    "ELOG_PRINTF_LVL": 0,
    "ELOG_FILE_LVL": 0,
    "ELOG_UDP_LVL": 0,
    "ELOG_IX_LVL": 0,
    "ELOG_UDP_IP": "0.0.0.0",
    "BusMonLevel": 0,
    "TLogEnable": false,
    "TLogIP_ADDR": "",
    "TLogEventCfg": [],
     "INFO1_PIC":    "BG1.bmp",
     "INFO1_COLOR":  0,
     "INFO2_PIC":    "BG2.bmp",
     "INFO2_COLOR":  0,
     "INFO1_TEXT": "",
     "INFO2_TEXT": "",
      "MANAGER_ABOUT_CONFIG": [
            {
                "SEARCH_SERVER_TYPE": "PB",
                "SEARCH_LIST_SIZE": "PB",
                "SEARCH_LIST_TIME": "PB",
                "SEARCH_LIST_MD5": "PB",
                "LAN-IP_Address": "PB"
            }
        ]
}