{
    "TB_NAME": "SAT_DH_HYBRID",
    "TB_DESC": {
                    "SAT_DH_HYBRID_RECORDS":8,
                    "SAT_DH_HYBRID_LAST_MODIFIED":"2024-08-09",
                    "SAT_DH_HYBRID_TB_DESC":"IX Hybrid IXG and DS"
    },
    "TB_TPL": {
        "IX_ADDR": "",
        "SYS_TYPE": "UNKNOWN",
        "IX_TYPE": "",
        "DEV_ID": 1,
        "ASSO": [

        ],
        "G_NBR": "",
        "L_NBR": "",
        "IX_NAME": ""
    },
    "TB_RULE": {

    },
    "TB_KEY": "IX_ADDR",
    "TB_MAX_CNT": 1000,
    "TB_DAT": [
        {
            "IX_ADDR": "0099000001",
            "SYS_TYPE": "DH-HYBRID",
            "IX_TYPE": "DS",
            "DEV_ID": 1,
            "ASSO": [1,2,3,4],
            "G_NBR": "",
            "L_NBR": "",
            "IX_NAME": "DS1"
        },
        {
            "IX_ADDR": "0099000002",
            "SYS_TYPE": "DH-HYBRID",
            "IX_TYPE": "DS",
            "DEV_ID": 2,
            "ASSO": [2],
            "G_NBR": "",
            "L_NBR": "",
            "IX_NAME": "DS2"
        },
        {
            "IX_ADDR": "0099000003",
            "SYS_TYPE": "DH-HYBRID",
            "IX_TYPE": "DS",
            "DEV_ID": 3,
            "ASSO": [3],
            "G_NBR": "",
            "L_NBR": "",
            "IX_NAME": "DS3"
        },
        {
            "IX_ADDR": "0099000004",
            "SYS_TYPE": "DH-HYBRID",
            "IX_TYPE": "DS",
            "DEV_ID": 4,
            "ASSO": [4],
            "G_NBR": "",
            "L_NBR": "",
            "IX_NAME": "DS4"
        },
        {
            "IX_ADDR": "0099010001",
            "SYS_TYPE": "DH-HYBRID",
            "IX_TYPE": "IXG",
            "DEV_ID": 1,
            "ASSO": [1],
            "G_NBR": "",
            "L_NBR": "",
            "IX_NAME": "IXG1"
        },
        {
            "IX_ADDR": "0099020001",
            "SYS_TYPE": "DH-HYBRID",
            "IX_TYPE": "IXG",
            "DEV_ID": 2,
            "ASSO": [1,2],
            "G_NBR": "",
            "L_NBR": "",
            "IX_NAME": "IXG2"
        },
        {
            "IX_ADDR": "0099030001",
            "SYS_TYPE": "DH-HYBRID",
            "IX_TYPE": "IXG",
            "DEV_ID": 3,
            "ASSO": [1,3],
            "G_NBR": "",
            "L_NBR": "",
            "IX_NAME": "IXG3"
        },
        {
            "IX_ADDR": "0099040001",
            "SYS_TYPE": "DH-HYBRID",
            "IX_TYPE": "IXG",
            "DEV_ID": 4,
            "ASSO": [1,4],
            "G_NBR": "",
            "L_NBR": "",
            "IX_NAME": "IXG4"
        }
    ]
}