{
  "Page LANConfig": {
    "PageTitle": "Set Static_ip_setting",
    "Items": [
      "_Section",
      "ITEM_Lan_policy",
      "ITEM_Static_ip_setting",
      "ITEM_Auto_ip_setting"
    ]
  },
  "Page WLANConfig": {
    "PageTitle": "Set WLANConfig",
    "Items": [
      "_Section",
      "ITEM_WIFI_SWITCH",
      "ITEM_WIFI_SSID_PARA"
    ]
  },
  "Page Static_ip_setting": {
    "PageTitle": "Set WLANConfig",
    "Items": [
      "_Section",
      "ITEM_IP_Address",
      "ITEM_SubnetMask",
      "ITEM_DefaultRoute",
      "ITEM_ConfirmBtn"
    ]
  },
  "Page Auto_ip_setting": {
    "PageTitle": "Set WLANConfig",
    "Items": [
      "_Section",
      "ITEM_Autoip_IPMask",
      "ITEM_Autoip_IPGateway",
      "ITEM_Autoip_IPSegment",
      "ITEM_ConfirmBtn"
    ]
  },
  "Page SIPConfig": {
    "PageTitle": "Set SIPConfig",
    "Items": [
      "_Section",
      "ITEM_SIPEnable",
      "ITEM_Sip_Sever",
      "ITEM_SIP_Account",
      "ITEM_Register",
      "ITEM_Use_Default",
      "ITEM_Network_Test"
    ]
  },
  "Page SIPSever": {
    "PageTitle": "Set SIPSever",
    "Items": [
      "_Section",
      "ITEM_Sip_Network_Setting",
      "ITEM_SIP_Sever",
      "ITEM_SIP_Port"
    ]
  },
  "Page SIPAccount": {
    "PageTitle": "Set SIP Acconut",
    "Items": [
      "_Section",
      "ITEM_Local_Account",
      "ITEM_Local_Pwd"
    ]
  },
  "Page IPCSetup": {
    "PageTitle": "IPC Setup",
    "Items": [
      "_Section",
      "ITEM_Add_By_Search",
      "ITEM_Add_By_Manual",
      "ITEM_IpcList",
      "ITEM_IpcAutoConfig"
    ]
  },
  "IX2V_ROOT": {
    "PageTitle": "IX2V Setting",
    "Items": [
      "_Section",
      "ITEM_LANConfig",
      "ITEM_WLANConfig",
      "ITEM_SIPConfig",
      "ITEM_IPCSetup"
    ]
  }
}