 {
    "1000":"IP_Address",
    "1001":"BD_RM_MS_NUM",
    "1002":"MY_GLOBAL_NUM",
    "1003":"MY_LOCAL_NUM",
    "1004":"FWVersion",
    "1005":"HWVersion",
    "1006":"UpgradeTime",
    "1007":"UpgradeCode",
    "1008":"UpTime",
    "1009":"SerialNumber",
    "1010":"DeviceType",
    "1011":"DeviceModel",
    "1012":"AreaCode",
    "1013":"TransferState",
    "1014":"MacAddress",
    "1015":"SubnetMask",
    "1016":"DefaultRoute",
    "1017":"DAY_CALL_VOLUME",
    "1018":"NIGHT_CALL_VOLUME",
    "1019":"DAY_NIGHIT_DELIMIT",
    "1020":"VIDEO_DISPLAY_BRIGHT",
    "1021":"VIDEO_DISPLAY_COLOR",
    "1022":"MONITOR_TIME_LIMIT",
    "1023":"TIME_FORMAT",
    "1024":"DATE_FORMAT",
    "1025":"RTC_SERVER_ENABLE",
    "1026":"TALK_VOLUME",
    "1027":"VIDEO_DISPLAY_CONTRAST",
    "1028":"CALL_TUNE_COUNT_LIMIT",
    "1029":"CALL_TUNE_TIME_LIMIT",
    "1030":"CALL_TUNE_PRIORITY",
    "1031":"DS_TUNE_SELECT",
    "1032":"CDS_TUNE_SELECT",
    "1033":"OS_TUNE_SELECT",
    "1034":"MSG_TUNE_SELECT",
    "1035":"DOORBELL_TUNE_SELECT",
    "1036":"INTERCOM_TUNE_SELECT",
    "1037":"INNERCALL_TUNE_SELECT",
    "1038":"ALARM_TUNE_SELECT",
    "1039":"MASTER_SLAVE_SET",
    "1040":"CallScene_SET",
    "1041":"IntercomEnable",
    "1042":"MissedCall",
    "1043":"MainShortcut1Select",
    "1044":"MainShortcut2Select",
    "1045":"MainShortcut3Select",
    "1046":"MainShortcut4Select",
    "1047":"FISH_EYE_CONTROL",
    "1048":"TIME_ZONE",
    "1049":"TIME_AUTO_UPDATE",
    "1050":"AUTO_RECORD_ENABLE",
    "1051":"DivertTime",
    "1052":"MasterBroadcastTime",
    "1053":"MicVolumeSet",
    "1054":"SpeakVolumeSet",
    "1055":"VedioResolutionSet",
    "1056":"DHCP_ENABLE",
    "1057":"SYSTEM_TYPE",
    "1058":"MY_NAME",
    "1059":"TIME_SERVER",
    "1060":"AUTO_REBOOT",
    "1061":"DIVERT_AUTO_MUTE",
    "1062":"DivertVedioResSet",
    "1063":"IPC_DHCP_Enable",
    "1064":"VIDEO_FORMAT",
    "1065":"FWUPGRADE_SER_SELECT",
    "1066":"FWUPGRADE_OTHER_SER",
    "1067":"FWUPGRADE_FW_CODE",
    "1068":"SIP_SERVER",
    "1069":"SIP_PORT",
    "1070":"SIP_DIVERT",
    "1071":"SIP_ACCOUNT",
    "1072":"SIP_PASSWORD",
    "1073":"SIP_MON_CODE",
    "1074":"SIP_CALL_CODE",
    "1075":"SIP_DIV_PWD",
    "1076":"VIDEO_DISPLAY_SCENE",
    "1077":"UNLOCK1_TIP_DISPLAY_TIME",
    "1078":"ManagePassword",
    "1079":"VOICE_LANGUAGE_SELECT_ID",
    "1080":"VOICE_VOLUME_IOID",
    "1081":"VOICE_PLAY_MODE_IOID",
    "1082":"CALL_FAIL_INEXISTENT_IOID",
    "1083":"CALL_FAIL_DND_IOID",
    "1084":"CALL_SUCC_IOID",
    "1085":"CALL_TALK_IOID",
    "1086":"CALL_CLOSE_IOID",
    "1087":"SYS_BUSY_IOID",
    "1088":"UNLOCK_COMMAND_IOID",
    "1089":"UNLOCK_BUTTON_IOID",
    "1090":"VOLUME_ADJUST_IOID",
    "1091":"SIP_ENABLE",
    "1092":"SIP_ACCOUNT_TYPE",
    "1093":"Autoip_IPMask",
    "1094":"Autoip_IPGateway",
    "1095":"UnlockPassword",
    "1096":"CODE_UNLOCK_DISABLE",
    "1097":"USER_QUERY_ENABLE",
    "1098":"REMOTE_CHANGE_ENABLE",
    "1099":"PROTECTION_ENABLE",
    "1100":"PRIVATE_UNLOCK_CODE",
    "1101":"DEVICE_DISP_NAME_ONLY",
    "1102":"DEVICE_DISP_SIMPLIFIED",
    "1103":"DEVICE_DISP_USE_G_L_NUM",
    "1104":"DEVICE_DISP_PREFIX_MS",
    "1105":"DEVICE_DISP_PREFIX_IM",
    "1106":"DEVICE_DISP_PREFIX_DS",
    "1107":"DEVICE_DISP_PREFIX_OS",
    "1108":"DEVICE_DISP_PREFIX_GL",
    "1109":"DEVICE_DISP_PREFIX_AC",
    "1110":"DEVICE_DISP_PREFIX_COMMON",
    "1111":"FAST_MON_KEY_SHORTCUT",
    "1112":"Autoip_IPSegment",
    "1113":"Screen_Contrast_Mode",
    "1114":"NoInputStartCallTime",
    "1115":"NoInputStartCallLeastLen",
    "1116":"InputImmediatelyStartCallLen",
    "1117":"UNLOCK1_ENABLE",
    "1118":"UNLOCK1_TYPE",
    "1119":"UNLOCK1_MODEL",
    "1120":"UNLOCK1_EXT_ADDR",
    "1121":"UNLOCK1_EXT_CH",
    "1122":"UNLOCK1_TIMING",
    "1123":"UNLOCK1_RETRIG",
    "1124":"UNLOCK1_PROTECTION_TIMING",
    "1125":"UNLOCK2_ENABLE",
    "1126":"UNLOCK2_TYPE",
    "1127":"UNLOCK2_MODEL",
    "1128":"UNLOCK2_EXT_ADDR",
    "1129":"UNLOCK2_EXT_CH",
    "1130":"UNLOCK2_TIMING",
    "1131":"UNLOCK2_RETRIG",
    "1132":"UNLOCK2_PROTECTION_TIMING",
    "1133":"RebootIfNetErrorTimeout",
    "1134":"ParameterGroup1Part1",
    "1135":"ParameterGroup1Part2",
    "1136":"ParameterGroup1Part3",
    "1137":"ParameterGroup2Part1",
    "1138":"ParameterGroup2Part2",
    "1139":"ParameterGroup2Part3",
    "1140":"ParameterGroup3Part1",
    "1141":"ParameterGroup3Part2",
    "1142":"ParameterGroup3Part3",
    "1143":"ParameterGroup4Part1",
    "1144":"ParameterGroup4Part2",
    "1145":"ParameterGroup4Part3",
    "1146":"ParameterGroup5Part1",
    "1147":"ParameterGroup5Part2",
    "1148":"ParameterGroup5Part3",
    "1149":"MENU_LANGUAGE_SELECT",
    "1150":"BAR_TITLE_DEFAULT",
    "1151":"InstallerPassword",
    "1152":"UnitIntercom",
    "1153":"OverUnitIntercom",
    "1154":"OverUnitMonitor",
    "1155":"DivertWithPTTAndJpg",
    "1156":"ExtUnitPwdEnable",
    "1157":"AutoCloseAfterUnlock",
    "1168":"ZportMode",
    "1169":"VIDEO_PROXY",
    "1170":"IX_BUILDER_ACCOUNT1",
    "1171":"IX_BUILDER_PWD1",
    "1172":"IX_BUILDER_ACCOUNT2",
    "1173":"IX_BUILDER_PWD2",
    "1174":"ShortcutDispColor",
    "1175":"IconText1Color",
    "1176":"IconText2Color",
    "1177":"DisplayTitleColor",
    "1178":"DisplayListColor",
    "1179":"DisplayStateColor",
    "1180":"CallMenuDispNameColor",
    "1181":"MAINMENU_MODE",
    "1182":"MAINMENU_BUILDINGMAP_HIGH",
    "1183":"MAINMENU_BUILDINGTEXT_HIGH",
    "1184":"MAINMENU_CODEUNLOCKTEXT_HIGH",
    "1185":"MAINMENU_TEXT_COLOR",
    "1186":"DIALMENU_MODE",
    "1187":"DIALMENU_ACT_SPRITEID",
    "1188":"KP_BACKSPACE_MODE",
    "1189":"SCREEN_DISPLAY_BRIGHT",
    "1190":"RAIN_COVER_ENABLE",
    "1191":"EXT_MODULE_CONFIG",
    "1192":"GerneralMenuMode",
    "1193":"TEST_MIC",
    "1194":"TEST_SPK",
    "1195":"TEST_MUSIC",
    "1196":"TEST_AUTO_LOCK",
    "1197":"TEST_AUTO_TALK",
    "1198":"TEST_MODE",
    "1199":"FWVersionAndVerify",
    "1200":"ParameterVersion",
    "1201":"LIFT_CTRL_ENABLE",
    "1202":"DEVICE_FLOOR",
    "1203":"DS_LIFT_CTRL_ENABLE",
    "1204":"LIFT_CONTROLLER_IN_LIFT_ENABLE",
    "1205":"LIFT_CONTROLLER_RELAY_TIME",
    "1206":"LIFT_CONTROLLER_RELAY_MODE",
    "1207":"LIFT_CONTROLLER_FLOOR_TIME",
    "1208":"LIFT_CONTROLLER1_RELAY1_FLOOR",
    "1209":"LIFT_CONTROLLER1_RELAY2_FLOOR",
    "1210":"LIFT_CONTROLLER1_RELAY3_FLOOR",
    "1211":"LIFT_CONTROLLER1_RELAY4_FLOOR",
    "1212":"LIFT_CONTROLLER1_RELAY5_FLOOR",
    "1213":"LIFT_CONTROLLER1_RELAY6_FLOOR",
    "1214":"LIFT_CONTROLLER1_RELAY7_FLOOR",
    "1215":"LIFT_CONTROLLER1_RELAY8_FLOOR",
    "1216":"LIFT_CONTROLLER1_RELAY9_FLOOR",
    "1217":"LIFT_CONTROLLER1_RELAY10_FLOOR",
    "1218":"LIFT_CONTROLLER1_RELAY11_FLOOR",
    "1219":"LIFT_CONTROLLER1_RELAY12_FLOOR",
    "1220":"LIFT_CONTROLLER1_RELAY13_FLOOR",
    "1221":"LIFT_CONTROLLER1_RELAY14_FLOOR",
    "1222":"LIFT_CONTROLLER2_RELAY1_FLOOR",
    "1223":"LIFT_CONTROLLER2_RELAY2_FLOOR",
    "1224":"LIFT_CONTROLLER2_RELAY3_FLOOR",
    "1225":"LIFT_CONTROLLER2_RELAY4_FLOOR",
    "1226":"LIFT_CONTROLLER2_RELAY5_FLOOR",
    "1227":"LIFT_CONTROLLER2_RELAY6_FLOOR",
    "1228":"LIFT_CONTROLLER2_RELAY7_FLOOR",
    "1229":"LIFT_CONTROLLER2_RELAY8_FLOOR",
    "1230":"LIFT_CONTROLLER2_RELAY9_FLOOR",
    "1231":"LIFT_CONTROLLER2_RELAY10_FLOOR",
    "1232":"LIFT_CONTROLLER2_RELAY11_FLOOR",
    "1233":"LIFT_CONTROLLER2_RELAY12_FLOOR",
    "1234":"LIFT_CONTROLLER2_RELAY13_FLOOR",
    "1235":"LIFT_CONTROLLER2_RELAY14_FLOOR",
    "1241":"ManagerMenuMode",
    "1242":"SipCfgMenuMode",
    "1243":"EditUserNameDis",
    "1244":"GlListDis",
    "1245":"MesgTextSnDis",
    "1246":"InstallerMenuMode",
    "1247":"ParaManaMenuMode",
    "1248":"AutoUnlockIo",
    "1249":"AutoUnlockEditEn",
    "1250":"AutoCloseScreenTime",
    "1260":"EditNameKeyPad",
    "1261":"MLKP_LANGUAGE_SELECT",
    "1500":"IXMiniRelayOption",
    "1501":"IXMiniRelayMap",
    "1700":"MIC_VOLUME_GAIN",
    "1701":"SPEAK_VOLUME_GAIN",
    "1702":"AEC_CTRL_ENABLE",
    "1703":"AGC_CTRL_ENABLE",
    "1704":"NR_CTRL_ENABLE",
    "1705":"PANEL_TYPE",
    "1706":"WIFI_SWITCH",
    "1707":"SIP_NetworkSetting",
    "1708":"IP_DeviceSeletNetwork",
    "1709":"IxDeviceRemoteSwitch",
    "1710":"IX_NET_MODE",
    "1711":"Divert_Ability",
    "1712":"WIFI_SSID_PARA",
    "1713":"PIP_SHOW_POS",
    "1714":"IO_Group",
    "1715":"NET_Timeout_Group",
    "1716":"LAN_Search_Timeout",
    "1717":"WLAN_Search_Timeout"
}