[
  {
    "text": "Jim",
    "number": "0099 0105",
    "symbol_suffix": "LV_SYMBOL_BELL",
    "symbol_suffix_color": 16777215
  },
  {
    "text": "Hebe",
    "number": "0099 0106",
    "symbol_suffix": "LV_SYMBOL_BELL",
    "symbol_suffix_color": 16777215
  },
  {
    "text": "Ada",
    "number": "0099 0027(3)",
    "symbol_suffix": "LV_SYMBOL_BELL",
    "symbol_suffix_color": 16777215
  },
  {
    "text": "Ela",
    "CallPanel_Number": "0099 0155",
    "symbol_suffix": "LV_SYMBOL_BELL",
    "symbol_suffix_color": 16777215
  },
  {
    "text": "Jefferson",
    "number": "0088 0005",
    "symbol_suffix": "LV_SYMBOL_BELL",
    "symbol_suffix_color": 16777215
  },
  {
    "text": "Hemings",
    "CallPanel_Number": "0099 1006",
    "symbol_suffix": "LV_SYMBOL_BELL",
    "symbol_suffix_color": 16777215
  },
  {
    "text": "Sally",
    "number": "0099 0077(4)",
    "symbol_suffix": "LV_SYMBOL_BELL",
    "symbol_suffix_color": 16777215
  },
  {
    "text": "Sal",
    "number": "0099 0070",
    "symbol_suffix": "LV_SYMBOL_BELL",
    "symbol_suffix_color": 16777215
  }
]
