{
  "PARA_PID":"IX482SE",
  "REV_PID":"2022-4-19 last modified",
  "DEV_NAME":"IX482SE",
  "DEV_MODEL":"IX-IM",
  "CUS_DEV_NAME":"IX482SE",
  "CUS_DEV_MODEL":"IX-IM",
  "FWVersionAndVerify":"{\"Device type\":\"IX482SE\",\"Code info\":\"IX482SE STD F/W\",\"Code size\":20405924,\"App Code\":\"947000\",\"App Ver\":\"V1.0.0.1911251030\"}",
  "IX_ADDR":"0099000101",
  "IX_NAME":"IX482SE",
  
  "NOT_USED": [
    "CUS_DEV_NAME",
    "CUS_DEV_MODEL"
  ]
}  