{
    "MFG_SN-Info":{
        "MFG_SN":"",
        "MFG_SN.Source":"",
        "MFG_SN.License":""
    },
    "CALL_Nbr":{
        "IX_ADDR":"",
        "IX_NAME":"",
        "G_NBR":"",
        "L_NBR":""
    },
    "DEV_INFO":{
        "DEV_NAME":"",
        "DEV_MODEL":"",
        "CUS_DEV_NAME":"",
        "CUS_DEV_MODEL":""
    },
    "MANAGER_ABOUT_PAGE":[{}],
    "USER_ABOUT_PAGE":[{}],
    "DATE_TIME_INFO":{
        "DATE":"",
        "TIME":"",
        "UP_TIME":"",
        "DATASET_TIME":"",
        "DATASET_PARA":""
    },
    "FM_VER_INFO":{
        "HD_VER":"V1.0",
        "FW_VER":"",
        "MCU_VER":""
    },
    "LAN_STATE":{
        "LAN-SW":"ON",
        "LAN-STATE":"Disconneted",
        "LAN-IP-Policy":"DHCP",
        "LAN-IP_Addr":{
            "LAN-IP_Address":"",
            "LAN-SubnetMask":"",
            "LAN-DefaultRoute":"",
            "LAN-MACAddr":""
        }
    },
    "WLAN_STATE":{
        "WLAN-SW":"OFF",
        "WLAN-STATE":"Disconnected",
        "WLAN-IP-Policy":"DHCP",
        "SSID_NAME":"",
        "QUALITY":0,
        "WLAN-IP_Addr":{
            "WLAN-IP_Address":"",
            "WLAN-SubnetMask":"",
            "WLAN-DefaultRoute":"",
            "WLAN-MACAddr":""
        }
    },
    "MY_STATE":{
        "SysVerify":"UNKNOWN",
        "ServerSysType":"",
        "System_State":"Starting",
        "LOCK1_STATE":false,
        "LOCK2_STATE":false,
        "DEBUG_STATE":false,
        "DT_LINK_STATE":false,
        "DT_LINK_TYPE":"",
        "XD_STATE":"Idle",
        "CHECK_SIP_STATE":false,
        "CHECK_XD_STATE":false,
        "SIP_CONNECT_NETWORK":"NONE",
        "IPC_AUTO_CONFIG": 0,
        "StartUp5MinutesLater":false,
        "OnlineMonitors":0,
        "XD2_State":"Disconnected",
        "CERT_State":"Configurable",
        "CERT_ErrorState":"No cert file",
        "NDM_S_STATE":"OFF",
        "NDM_C_STATE":"OFF",
        "NDM_C_RESULT":null,
        "SDcardCapacity":null,
        "NandCapacity":null,
        "SYS_MemAvailable":null,
        "IX_CALL_KEY":0,
        "DIVERT_ON_CONT":0,
        "LINPHONE_STATE":"",
        "TLogInfo":{
            "TLogState":"OFF",
            "TLogIP_ADDR":"",
            "TLogStartTime":"",
            "TLogStopTime":"",
            "TLogEvent":[],
            "TLogCountOfFailures":0,
            "TLogSuccessTimes":0
        }
    },

    "SEARCH_SERVER_STATE":{
        "SEARCH_SERVER_TYPE":"",
        "SEARCH_SERVER_IP":"0.0.0.0",
        "SEARCH_LIST_MD5":"",
        "SEARCH_LIST_SIZE":"",
        "SEARCH_LIST_TIME":"",
        "SEARCH_MY_LIST_MD5":"",
        "IXS_Interval":""
    },

    "CARD_INFO":{
        "MasterAdd":"",
        "MasterDel":"",
        "UserCards":0,
        "CardSetup_State": 0
    },
    "MDS_MODULS":{

    },
    "BC-CALL":{

    },
    "BC_MON":{

    },

    "DT_IM_Search": {
        "InSearching": false,
        "LastSearchDate": "",
        "LastSearchResult":null
    },
    "RADAR_MODULE":false,
    "CameraState":{
        "CameraType":"",
        "CameraOnState":0,
        "FecMode":0,
        "FecShiftx":0,
        "FecShifty":0,
        "FecShiftz": 0
    },
    "Call_Info":	{
		"CallServerState":	"Wait"
	}
}