﻿[
{"index":1,"small":"α","cap":"Α"},
{"index":2,"small":"β","cap":"Β"},
{"index":3,"small":"γ","cap":"Γ"},
{"index":4,"small":"δ","cap":"Δ"},
{"index":5,"small":"ε","cap":"Ε"},
{"index":6,"small":"ζ","cap":"Ζ"},
{"index":7,"small":"η","cap":"Η"},
{"index":8,"small":"θ","cap":"Θ"},
{"index":9,"small":"ι","cap":"Ι"},
{"index":10,"small":"κ","cap":"Κ"},
{"index":11,"small":"λ","cap":"Λ"},
{"index":12,"small":"μ","cap":"Μ"},
{"index":13,"small":"ν","cap":"Ν"},
{"index":14,"small":"ξ","cap":"Ξ"},
{"index":15,"small":"ο","cap":"Ο"},
{"index":16,"small":"π","cap":"Π"},
{"index":17,"small":"ρ","cap":"Ρ"},
{"index":18,"small":"σ","cap":"Σ"},
{"index":19,"small":"τ","cap":"Τ"},
{"index":20,"small":"υ","cap":"Υ"},
{"index":21,"small":"φ","cap":"Φ"},
{"index":22,"small":"χ","cap":"Χ"},
{"index":23,"small":"ψ","cap":"Ψ"},
{"index":24,"small":"ω","cap":"Ω"}
]