{
	"ascreen" : 
	{
		"background" : "main03.bin",
		"menu_type" : "image",
		"page_name" : "main",
		"page_title" : "",
		"src_height" : 800,
		"src_width" : 480
	},
	"iconlist": {
		"header": {
			"POS": {
				"Height": 73,
				"Pos.x": 5,
				"Pos.y": 3,
				"Width": 473
			},
			"TEXT": {
				"Label_text": "",
				"text_color": 16777215,
				"text_size": 1
			},
			"type": "IMG_Header"
		},
		"16-t": {
			"POS": {
				"Height": 388,
				"Pos.x": 27,
				"Pos.y": 100,
				"Width": 430
			},
			"TEXT": {
				"Label_text": "Hu",
				"text_color": 0,
				"text_size": 1
			},
			"PIC": "",
			"ICON_NAME": "INFO1",
			"type": "IMG_Info"
		},
		"18-i(Code_kp)": {
			"Function": "Code_kp",
			"Link": "",
			"POS": {
				"Height": 89,
				"Pos.x": 25,
				"Pos.y": 699,
				"Width": 434
			},
			"type": "IMG_Icon"
		},
		"20-c": {
			"CallBtn_Name": true,
			"CallBtn_Number": "0099000101",
			"Link": "",
			"POS": {
				"Height": 170,
				"Pos.x": 25,
				"Pos.y": 511,
				"Width": 208
			},
			"TEXT": {
				"Label_text": "",
				"text_color": 16777215,
				"text_size": 1
			},
			"ICON_NAME": "BTN1",
			"type": "IMG_Call"
		},
		"8-c": {
			"CallBtn_Name": true,
			"CallBtn_Number": "0099000201",
			"Link": "",
			"POS": {
				"Height": 170,
				"Pos.x": 243,
				"Pos.y": 510,
				"Width": 208
			},
			"TEXT": {
				"Label_text": "",
				"text_color": 16777215,
				"text_size": 1
			},
			"ICON_NAME": "BTN2",
			"type": "IMG_Call"
		}
	}
}
