{
    "DH_HYBRID_MAT_Setting": {
        "PageTitle": "DH HYBRID MAT setting",
        "Items": [
            "ITEM_DH_HYBRID_MAT_TB_DESC",
            "ITEM_DH_HYBRID_MAT_RECORDS",
            "ITEM_DH_HYBRID_MAT_LAST_MODIFIED",
            "ITEM_DH_HYBRID_MAT_Select",
            "ITEM_DH_HYBRID_MAT_CreateNew",
            "ITEM_DH_HYBRID_MAT_Editor",
            "ITEM_DH_HYBRID_MAT_CheckOnline"
        ]
    },
    "ITEM_DH_HYBRID_MAT_TB_DESC": {
        "type": "Item_PB_Para",
        "text": "MAT Description",
        "ParaName": "NEW_R8001_TB_DESC"
    },
    "ITEM_DH_HYBRID_MAT_RECORDS": {
        "type": "Item_PB_Para",
        "text": "MAT Records",
        "ParaName": "NEW_R8001_RECORDS"
    },
    "ITEM_DH_HYBRID_MAT_LAST_MODIFIED": {
        "type": "Item_PB_Para",
        "text": "MAT Last modified",
        "ParaName": "NEW_R8001_LAST_MODIFIED"
    },
    "ITEM_DH_HYBRID_MAT_Select": {
        "type": "ITEM_text",
        "text": "MAT Choose",
        "ext-link": "HYBRID_MAT_Choose"
    },
    "ITEM_DH_HYBRID_MAT_CreateNew": {
        "type": "ITEM_text",
        "text": "MAT create new",
        "ext-link": "HYBRID_MAT_CreateNew"
    },
    "ITEM_DH_HYBRID_MAT_Editor": {
        "type": "ITEM_text",
        "text": "MAT editor",
        "ext-link": "HYBRID_MAT_Editor"
    },
    "ITEM_DH_HYBRID_MAT_CheckOnline": {
        "type": "ITEM_text",
        "text": "MAT check online",
        "ext-link": "HYBRID_MAT_CheckOnline"
    }
}