{
  "Lan_policy": {
    "type": "ITEM_combox",
    "text": "Lan policy",
    "com_item": [
      [ "AutoIPAndDHCP", "AutoIPAndDHCP" ],
      [ "Static", "Static" ]
    ]
  },
  "IP_Address": {
    "type": "ITEM_text",
    "text": "IP address",
    "pattern": "^[0-9]{1,3}\\.[0-9]{1,3}\\.[0-9]{1,3}\\.[0-9]{1,3}$"
  },
  "SubnetMask": {
    "type": "ITEM_text",
    "text": "Subnet Mask",
    "pattern": "^[0-9]{1,3}\\.[0-9]{1,3}\\.[0-9]{1,3}\\.[0-9]{1,3}$"
  },
  "DefaultRoute": {
    "type": "ITEM_text",
    "text": "Default Route",
    "pattern": "^[0-9]{1,3}\\.[0-9]{1,3}\\.[0-9]{1,3}\\.[0-9]{1,3}$"
  },
  "Autoip_IPMask": {
    "type": "ITEM_text",
    "text": "Autoip IP Mask",
    "pattern": "^[0-9]{1,3}\\.[0-9]{1,3}\\.[0-9]{1,3}\\.[0-9]{1,3}$"
  },
  "Autoip_IPGateway": {
    "type": "ITEM_text",
    "text": "Autoip IP Gateway",
    "pattern": "^[0-9]{1,3}\\.[0-9]{1,3}\\.[0-9]{1,3}\\.[0-9]{1,3}$"
  },
  "Autoip_IPSegment": {
    "type": "ITEM_text",
    "text": "Autoip IP Segment",
    "pattern": "^[0-9]{1,3}\\.[0-9]{1,3}\\.[0-9]{1,3}\\.[0-9]{1,3}$"
  },
  "WIFI_SWITCH": {
    "type": "ITEM_switch",
    "text": "WiFi switch"
  },
  "SIP_ENABLE": {
    "type": "ITEM_switch",
    "text": "SIP enable",
    "msg": "SET_SIP_EN"
  },
  "SIP_SERVER": {
    "type": "ITEM_text",
    "text": "SIP server",
    "msg": "SET_SIP_ACC"
  },
  "SIP_PORT": {
    "type": "ITEM_text",
    "text": "SIP Port"
  },
  "SIP_ACCOUNT": {
    "type": "ITEM_text",
    "text": "SIP account",
    "msg": "SET_SIP_ACC",
    "EditDisable": 1
  },
  "SIP_PASSWORD": {
    "type": "ITEM_text",
    "text": "SIP password"
  },
  "SIP_NetworkSetting": {
    "type": "ITEM_combox",
    "text": "SIP network setting",
    "com_item": [
      [ "eth0", "eth0" ],
      [ "wlan", "wlan" ]
    ]
  },
  "RADAR_DISTANCE_LEVEL": {
    "type": "ITEM_combox",
    "para_type": "int",
    "text": "Distance",
    "msg": "SET_RADAR_DISTANCE",
    "com_item": [
      [ 14, "Far" ],
      [ 16, "Middle" ],
      [ 18, "Near" ]
    ],
    "pattern": "(^[1-9]$)|(^[1-9][0-9]$)"
  },
  "SCREEN_HIGH_BRIGHT": {
    "type": "ITEM_text",
    "para_type": "int",
    "kp_type": "num",
    "text": "High Brightness",
    "pattern": "^[4-9][0-9]$"
  },
  "SCREEN_LOW_BRIGHT": {
    "type": "ITEM_text",
    "para_type": "int",
    "kp_type": "num",
    "text": "Low Brightness",
    "pattern": "^[4-9][0-9]$"
  },
  "SCREEN_HIGH_BRIGHT_TIME": {
    "type": "ITEM_combox",
    "text": "Bright Keep Time",
    "com_item": [
      [ 5, "5s" ],
      [ 10, "10s" ],
      [ 20, "20s" ],
      [ 30, "30s" ],
      [ 60, "1min" ],
      [ 180, "3min" ],
      [ 300, "5min" ]
    ]
  },
  "MENU_AUTO_RETURN_TIME": {
    "type": "ITEM_combox",
    "text": "Menu Keep Time",
    "com_item": [
      [ 5, "5s" ],
      [ 10, "10s" ],
      [ 20, "20s" ],
      [ 30, "30s" ],
      [ 60, "1min" ],
      [ 180, "3min" ],
      [ 300, "5min" ]
    ]
  },
  "RADAR_MOTION_DISTANCE_LEVEL": {
    "type": "ITEM_text",
    "text": "Montion"
  },
  "DATE_FORMAT": {
    "type": "ITEM_combox",
    "text": "Date mode",
    "com_item": [
      [ 0, "MM_DD_YYYY" ],
      [ 1, "DD_MM_YYYY" ],
      [ 2, "YYYY_MM_DD" ]
    ]
  },
  "TIME_FORMAT": {
    "type": "ITEM_combox",
    "text": "Time mode",
    "com_item": [
      [ 0, "Time_12H" ],
      [ 1, "Time_24H" ]
    ]
  },
  "TIME_AutoUpdateEnable": {
    "type": "ITEM_switch",
    "text": "Time auto update"
  },
  "TIME_SERVER": {
    "type": "ITEM_text",
    "text": "Time server"
  },
  "TIME_ZONE": {
    "type": "ITEM_text",
    "text": "Time zone",
    "para_type": "int",
    "com_item": [
      [ -12, "UTC-12:00" ],
      [ -11, "UTC-11:00" ],
      [ -10, "UTC-10:00" ],
      [ -9, "UTC-09:00" ],
      [ -8, "UTC-08:00" ],
      [ -7, "UTC-07:00" ],
      [ -6, "UTC-06:00" ],
      [ -5, "UTC-05:00" ],
      [ -4, "UTC-04:00" ],
      [ -3, "UTC-03:00" ],
      [ -2, "UTC-02:00" ],
      [ -1, "UTC-01:00" ],
      [ 0, "UTC" ],
      [ 1, "UTC+01:00" ],
      [ 2, "UTC+02:00" ],
      [ 3, "UTC+03:00" ],
      [ 4, "UTC+04:00" ],
      [ 5, "UTC+05:00" ],
      [ 6, "UTC+06:00" ],
      [ 7, "UTC+07:00" ],
      [ 8, "UTC+08:00" ],
      [ 9, "UTC+09:00" ],
      [ 10, "UTC+10:00" ],
      [ 11, "UTC+11:00" ],
      [ 12, "UTC+12:00" ]
    ]
  },
  "Unlock1Pwd1": {
    "type": "ITEM_text",
    "kp_type": "num",
    "text": "Unlock password 1",
    "pattern": "^[0-9]{4,8}$"
  },
  "Unlock1Pwd2": {
    "type": "ITEM_text",
    "kp_type": "num",
    "text": "Unlock password 2",
    "pattern": "^[0-9]{4,8}$"
  },
  "Unlock2Pwd1": {
    "type": "ITEM_text",
    "kp_type": "num",
    "text": "Unlock2 password 1",
    "pattern": "^[0-9]{4,8}$"
  },
  "Unlock2Pwd2": {
    "type": "ITEM_text",
    "kp_type": "num",
    "text": "Unlock2 password 2",
    "pattern": "^[0-9]{4,8}$"
  },
  "AutoUnlockPwdLen": {
    "type": "ITEM_text",
    "kp_type": "num",
    "text": "Auto Unlock Pwd Len",
    "pattern": "^[4-8]{1,1}$"
  },
  "RL1_MODE": {
    "type": "ITEM_combox",
    "text": "relay1 mode",
    "com_item": [
      [ "0-NO", "0-NO" ],
      [ "1-NC", "1-NC" ]
    ]
  },
  "RL2_MODE": {
    "type": "ITEM_combox",
    "text": "relay2 mode",
    "com_item": [
      [ "0-NO", "0-NO" ],
      [ "1-NC", "1-NC" ]
    ]
  },
  "RL1_TIMER": {
    "type": "ITEM_text",
    "text": "unlock1 time",
    "kp_type": "num",
    "pattern": "(^[1-9]$)|(^[1-9][0-9]$)"
  },
  "RL2_TIMER": {
    "type": "ITEM_text",
    "text": "unlock2 time",
    "kp_type": "num",
    "pattern": "(^[1-9]$)|(^[1-9][0-9]$)"
  },
  "IX_ADDR": {
    "type": "ITEM_combox",
    "text": "Address",
    "com_item": [
      [ "0099000001", "DS1" ],
      [ "0099000002", "DS2" ],
      [ "0099000003", "DS3" ],
      [ "0099000004", "DS4" ],
      [ "0099000005", "DS5" ],
      [ "0099000006", "DS6" ],
      [ "0099000007", "DS7" ],
      [ "0099000008", "DS8" ]
    ]
  },
  "IX_NAME": {
    "type": "ITEM_text",
    "text": "Name",
    "pattern": "^.{0,30}$"
  },
  "G_NBR": {
    "type": "ITEM_text",
    "text": "G_NBR",
    "kp_type": "num",
    "pattern": "^[0-9]{0,10}$"
  },
  "L_NBR": {
    "type": "ITEM_text",
    "text": "L_NBR",
    "kp_type": "num",
    "pattern": "^[0-9]{0,6}$"
  },
  "UpdateServer": {
    "type": "ITEM_combox",
    "text": "Update Server",
    "com_item": [
      [ "47.91.88.33", "47.91.88.33" ],
      [ "47.106.104.38", "47.106.104.38" ],
      [ "SD_Card", "SD_Card" ]
    ]
  },
  "UpdateCode": {
    "type": "ITEM_text",
    "text": "Download code"
  },
  "Mobile_SSID_NAME1": {
    "type": "ITEM_text",
    "text": "SSID",
    "pattern": "^[a-zA-Z0-9]{1,20}$"
  },
  "Mobile_SSID_PWD1": {
    "type": "ITEM_text",
    "text": "Password",
    "pattern": "^[a-zA-Z0-9]{1,20}$"
  },
  "EVR_ENABLE": {
    "type": "ITEM_switch",
    "text": "EVR enable"
  },
  "IO_SENSOR_TYPE": {
    "type": "ITEM_text",
    "para_type": "int",
    "text": "Sensor Type",
    "pattern": "^[1-3]{1,1}$"
  },
  "Autoip_LastIP": {
    "type": "ITEM_text",
    "text": "Autoip LastIP"
  },
  "List_Len": {
    "type": "ITEM_text",
    "para_type": "int",
    "text": "List length",
    "pattern": "^[4-8]{1,1}$",
    "kp_type": "num"
  },
  "ManagePassword": {
    "type": "ITEM_text",
    "text": "Manage Password",
    "pattern": "^[0-9]{4,8}$",
    "kp_type": "num"
  },
  "InstallerPassword": {
    "type": "ITEM_text",
    "text": "Installer Password",
    "pattern": "^[0-9]{4,8}$",
    "kp_type": "num"
  },
  "BTN1_TEXT": {
    "type": "ITEM_text",
    "text": "Call Name"
  },
  "BTN1_NBR": {
    "type": "ITEM_text",
    "text": "Call Number",
    "pattern": "^[0-9]{1,10}$",
    "kp_type": "num"
  },
  "INFO1_TEXT": {
    "type": "ITEM_text",
    "text": "Info"
  },
  "INFO2_TEXT": {
    "type": "ITEM_text",
    "text": "Info"
  },
  "BTN2_TEXT": {
    "type": "ITEM_text",
    "text": "Call Name"
  },
  "BTN2_NBR": {
    "type": "ITEM_text",
    "text": "Call Number",
    "pattern": "^[0-9]{1,10}$",
    "kp_type": "num"
  },
  "BTN3_TEXT": {
    "type": "ITEM_text",
    "text": "Call Name"
  },
  "BTN3_NBR": {
    "type": "ITEM_text",
    "text": "Call Number",
    "pattern": "^[0-9]{1,10}$",
    "kp_type": "num"
  },
  "BTN4_TEXT": {
    "type": "ITEM_text",
    "text": "Call Name"
  },
  "BTN4_NBR": {
    "type": "ITEM_text",
    "text": "Call Number",
    "pattern": "^[0-9]{1,10}$",
    "kp_type": "num"
  },

  "MainListType": {
    "type": "ITEM_combox",
    "para_type": "int",
    "text": "List type",
    "com_item": [
      [ 0, "Roomlist" ],
      [ 1, "Namelist" ]
    ]
  },
  "RoomNumDispType": {
    "type": "ITEM_combox",
    "para_type": "int",
    "text": "Num type",
    "com_item": [
      [ 0, "Addr" ],
      [ 1, "L_Nbr" ],
      [ 2, "G_Nbr" ]
    ]
  },
  "BTN1_SIZE": {
    "type": "ITEM_combox",
    "text": "Name Size",
    "com_item": [
      [ 0, "Small" ],
      [ 1, "Mid" ],
      [ 2, "Large" ],
      [ 3, "Bigger" ]
    ]
  },
  "BTN2_SIZE": {
    "type": "ITEM_combox",
    "text": "Name Size",
    "com_item": [
      [ 0, "Small" ],
      [ 1, "Mid" ],
      [ 2, "Large" ],
      [ 3, "Bigger" ]
    ]
  },
  "BTN3_SIZE": {
    "type": "ITEM_combox",
    "text": "Name Size",
    "com_item": [
      [ 0, "Small" ],
      [ 1, "Mid" ],
      [ 2, "Large" ],
      [ 3, "Bigger" ]
    ]
  },
  "BTN4_SIZE": {
    "type": "ITEM_combox",
    "text": "Name Size",
    "com_item": [
      [ 0, "Small" ],
      [ 1, "Mid" ],
      [ 2, "Large" ],
      [ 3, "Bigger" ]
    ]
  },
  "INFO1_SIZE": {
    "type": "ITEM_combox",
    "text": "Name Size",
    "com_item": [
      [ 0, "Small" ],
      [ 1, "Mid" ],
      [ 2, "Large" ],
      [ 3, "Bigger" ]
    ]
  },
  "INFO2_SIZE": {
    "type": "ITEM_combox",
    "text": "Name Size",
    "com_item": [
      [ 0, "Small" ],
      [ 1, "Mid" ],
      [ 2, "Large" ],
      [ 3, "Bigger" ]
    ]
  },
  "INFO1_COLOR": {
    "type": "ITEM_combox",
    "text": "Info Color",
    "com_item": [
      [ 0, "Black" ],
      [ 16777215, "White" ],
      [ 9825385, "Green" ],
      [ 13900827, "Red" ],
      [ 4445688, "Blue" ],
      [ 5592405, "Gray" ],
      [ 16119087, "Yellow" ],
      [ 4981624, "Purple" ]
    ]
  },
  "INFO2_COLOR": {
    "type": "ITEM_combox",
    "text": "Info Color",
    "com_item": [
      [ 0, "Black" ],
      [ 16777215, "White" ],
      [ 9825385, "Green" ],
      [ 13900827, "Red" ],
      [ 4445688, "Blue" ],
      [ 5592405, "Gray" ],
      [ 16119087, "Yellow" ],
      [ 4981624, "Purple" ]
    ]
  },
  "BTN1_COLOR": {
    "type": "ITEM_combox",
    "text": "Name Color",
    "com_item": [
      [ 0, "Black" ],
      [ 16777215, "White" ],
      [ 9825385, "Green" ],
      [ 13900827, "Red" ],
      [ 4445688, "Blue" ],
      [ 5592405, "Gray" ],
      [ 16119087, "Yellow" ],
      [ 4981624, "Purple" ]
    ]
  },
  "BTN2_COLOR": {
    "type": "ITEM_combox",
    "text": "Name Color",
    "com_item": [
      [ 0, "Black" ],
      [ 16777215, "White" ],
      [ 9825385, "Green" ],
      [ 13900827, "Red" ],
      [ 4445688, "Blue" ],
      [ 5592405, "Gray" ],
      [ 16119087, "Yellow" ],
      [ 4981624, "Purple" ]
    ]
  },
  "BTN3_COLOR": {
    "type": "ITEM_combox",
    "text": "Name Color",
    "com_item": [
      [ 0, "Black" ],
      [ 16777215, "White" ],
      [ 9825385, "Green" ],
      [ 13900827, "Red" ],
      [ 4445688, "Blue" ],
      [ 5592405, "Gray" ],
      [ 16119087, "Yellow" ],
      [ 4981624, "Purple" ]
    ]
  },
  "BTN4_COLOR": {
    "type": "ITEM_combox",
    "text": "Name Color",
    "com_item": [
      [ 0, "Black" ],
      [ 16777215, "White" ],
      [ 9825385, "Green" ],
      [ 13900827, "Red" ],
      [ 4445688, "Blue" ],
      [ 5592405, "Gray" ],
      [ 16119087, "Yellow" ],
      [ 4981624, "Purple" ]
    ]
  },
  "DH_IM_FW_SERVER": {
    "type": "ITEM_combox",
    "text": "firmware server",
    "com_item": [
      [ "47.91.88.33", "47.91.88.33" ],
      [ "47.106.104.38", "47.106.104.38" ]
    ]
  },
  "DH_IM_FW_CODE": {
    "type": "ITEM_text",
    "text": "firmware code"
  },
  "MenuType": {
    "type": "ITEM_combox",
    "text": "Menu type",
    "com_item": [
      [
        "DH-HYBRID",
        "DH-HYBRID"
      ],
      [
        "DH-APT",
        "DH-APT"
      ]
    ]
  },
  "TEXT1_TEXT": {
    "type": "ITEM_text",
    "text": "Info"
  },
  "DEV_ADDR": {
    "type": "ITEM_combox",
    "text": "DEV_ADDR",
    "com_item": [
      [ 1, "DS1" ],
      [ 2, "DS2" ],
      [ 3, "DS3" ],
      [ 4, "DS4" ],
      [ 5, "DS5" ],
      [ 6, "DS6" ],
      [ 7, "DS7" ],
      [ 8, "DS8" ]
    ]
  },

  "ASSO": {
    "type": "ITEM_text",
    "text": "ASSO",
    "pattern": "^[[0-9,]{0,20}]$"
  },
  "CardContactPara": {
    "type": "ITEM_text",
    "text": "CardContactPara",
    "pattern": "^[[0-9,]{0,20}]$"
  },
  "List_Size": {
    "type": "ITEM_combox",
    "text": "List Size",
    "com_item": [
      [ 0, "Small" ],
      [ 1, "Mid" ],
      [ 2, "Large" ]
    ]
  },
  "List_Color": {
    "type": "ITEM_combox",
    "text": "List Color",
    "com_item": [
      [ 0, "Black" ],
      [ 16777215, "White" ],
      [ 9825385, "Green" ],
      [ 13900827, "Red" ],
      [ 4445688, "Blue" ],
      [ 5592405, "Gray" ],
      [ 16119087, "Yellow" ],
      [ 4981624, "Purple" ]
    ]
  },
  "EOC_WORK_MODE": {
    "type": "ITEM_combox",
    "text": "EOC work mode",
    "com_item": [
      [ "master", "Master" ],
      [ "slave", "Slave" ]
    ]
  },
  "CurLanguage":{
  "type": "ITEM_combox",
    "text": "Language",
    "msg":"set_language",
    "com_item": [
      [ "English", "English" ]
    ]
  },
  "VOICE_LANGUAGE_SELECT_DIR":{
  "type": "ITEM_combox",
    "text": "Voice language",
    "com_item": [
      [ "/usr/rings/1_EN", "English" ]
    ]
  },
  "VOICE_VOLUME_IOID":
  {
  "type": "ITEM_combox",
    "text": "Voice volume",
    "com_item": [
      [ "0", "Mute" ],
      [ "1", "1" ],
      [ "2" ,"2" ],
      [ "3", "3" ],
      [ "4", "4" ],
      [ "5", "5" ],
      [ "6", "6" ],
      [ "6", "7" ],
      [ "6", "8" ]
    ]
  },
   "KeyBeepDis":
  {
  "type": "ITEM_combox",
    "text": "Key tone",
    "com_item": [
      [ 0, "Enable" ],
      [ 1, "Disable" ]
    ]
  },
  "L_NBR_SEARCH_ALLOW":
  {
  "type": "ITEM_combox",
    "text": "Search by L_NBR",
    "com_item": [
      [ 0, "Disable" ],
      [ 1, "Enable" ]
    ]
  },
  "G_NBR_SEARCH_ALLOW":
  {
  "type": "ITEM_combox",
    "text": "Search by G_NBR",
    "com_item": [
      [ 0, "Disable" ],
      [ 1, "Enable" ]
    ]
  },
   "BTN5_TEXT": {
    "type": "ITEM_text",
    "text": "Call Name"
  },
  "BTN5_NBR": {
    "type": "ITEM_text",
    "text": "Call Number",
    "pattern": "^[0-9]{1,10}$",
    "kp_type": "num"
  },
  "BTN5_COLOR": {
    "type": "ITEM_combox",
    "text": "Name Color",
    "com_item": [
      [ 0, "Black" ],
      [ 16777215, "White" ],
      [ 9825385, "Green" ],
      [ 13900827, "Red" ],
      [ 4445688, "Blue" ],
      [ 5592405, "Gray" ],
      [ 16119087, "Yellow" ],
      [ 4981624, "Purple" ]
    ]
  },
  "BTN5_SIZE": {
    "type": "ITEM_combox",
    "text": "Name Size",
    "com_item": [
      [ 0, "Small" ],
      [ 1, "Mid" ],
      [ 2, "Large" ],
      [ 3, "Bigger" ]
    ]
  },
   "BTN6_TEXT": {
    "type": "ITEM_text",
    "text": "Call Name"
  },
  "BTN6_NBR": {
    "type": "ITEM_text",
    "text": "Call Number",
    "pattern": "^[0-9]{1,10}$",
    "kp_type": "num"
  },
  "BTN6_COLOR": {
    "type": "ITEM_combox",
    "text": "Name Color",
    "com_item": [
      [ 0, "Black" ],
      [ 16777215, "White" ],
      [ 9825385, "Green" ],
      [ 13900827, "Red" ],
      [ 4445688, "Blue" ],
      [ 5592405, "Gray" ],
      [ 16119087, "Yellow" ],
      [ 4981624, "Purple" ]
    ]
  },
  "BTN6_SIZE": {
    "type": "ITEM_combox",
    "text": "Name Size",
    "com_item": [
      [ 0, "Small" ],
      [ 1, "Mid" ],
      [ 2, "Large" ],
      [ 3, "Bigger" ]
    ]
  },
   "BTN7_TEXT": {
    "type": "ITEM_text",
    "text": "Call Name"
  },
  "BTN7_NBR": {
    "type": "ITEM_text",
    "text": "Call Number",
    "pattern": "^[0-9]{1,10}$",
    "kp_type": "num"
  },
  "BTN7_COLOR": {
    "type": "ITEM_combox",
    "text": "Name Color",
    "com_item": [
      [ 0, "Black" ],
      [ 16777215, "White" ],
      [ 9825385, "Green" ],
      [ 13900827, "Red" ],
      [ 4445688, "Blue" ],
      [ 5592405, "Gray" ],
      [ 16119087, "Yellow" ],
      [ 4981624, "Purple" ]
    ]
  },
  "BTN7_SIZE": {
    "type": "ITEM_combox",
    "text": "Name Size",
    "com_item": [
      [ 0, "Small" ],
      [ 1, "Mid" ],
      [ 2, "Large" ],
      [ 3, "Bigger" ]
    ]
  },
   "BTN8_TEXT": {
    "type": "ITEM_text",
    "text": "Call Name"
  },
  "BTN8_NBR": {
    "type": "ITEM_text",
    "text": "Call Number",
    "pattern": "^[0-9]{1,10}$",
    "kp_type": "num"
  },
  "BTN8_COLOR": {
    "type": "ITEM_combox",
    "text": "Name Color",
    "com_item": [
      [ 0, "Black" ],
      [ 16777215, "White" ],
      [ 9825385, "Green" ],
      [ 13900827, "Red" ],
      [ 4445688, "Blue" ],
      [ 5592405, "Gray" ],
      [ 16119087, "Yellow" ],
      [ 4981624, "Purple" ]
    ]
  },
  "BTN8_SIZE": {
    "type": "ITEM_combox",
    "text": "Name Size",
    "com_item": [
      [ 0, "Small" ],
      [ 1, "Mid" ],
      [ 2, "Large" ],
      [ 3, "Bigger" ]
    ]
  }
}