{
    "RESSetting": {
        "PageTitle": "RES setting",
        "PageCtrl":{
            "IO_Name": "MenuType",
            "ValueToPage":[
              [ "DH-HYBRID", "DH-HYBRID-RESSetting"],
              [ "DH-APT", "DH-APT-RESSetting"]
            ]
          },
        "Items": [
        ]
    },

    "DH-HYBRID-RESSetting": {
        "PageTitle": "RES setting",
        "PageCtrl":{
            "IO_Name": "MenuType",
            "ValueToPage":[
              [ "DH-HYBRID", "DH-HYBRID-RESSetting"],
              [ "DH-APT", "DH-APT-RESSetting"]
            ]
          },
        "Items": [
            "ITEM_DH_HYBRID_MAT_Setting",
            "ITEM_DH_HYBRID_SAT_Setting"
        ]
    },
    "DH-APT-RESSetting": {
        "PageTitle": "RES setting",
        "PageCtrl":{
            "IO_Name": "MenuType",
            "ValueToPage":[
              [ "DH-HYBRID", "DH-HYBRID-RESSetting"],
              [ "DH-APT", "DH-APT-RESSetting"]
            ]
          },
        "Items": [
            "ITEM_DH_APT_MAT_Setting",
            "ITEM_DH_APT_SAT_Setting"
        ]
    },

    "ITEM_DH_HYBRID_MAT_Setting": {
        "type": "ITEM_text",
        "text": "HYBRID MAT setting",
        "ext-link": "DH_HYBRID_MAT_Setting"
    },

    "ITEM_DH_HYBRID_SAT_Setting": {
        "type": "ITEM_text",
        "text": "HYBRID SAT setting",
        "ext-link": "DH_HYBRID_SAT_Setting"
    },

    "ITEM_DH_APT_SAT_Setting": {
        "type": "ITEM_text",
        "text": "APT SAT setting",
        "ext-link": "DH_APT_SAT_Setting"
    },
    "ITEM_DH_APT_MAT_Setting": {
        "type": "ITEM_text",
        "text": "APT MAT setting",
        "ext-link": "DH_APT_MAT_Setting"
    }
}
