{
    "RtcSetting": {
        "PageTitle": "Date and time",
        "Items": [
            "DATE_FORMAT",
            "TIME_FORMAT",
            "ITEM_DateSet",
            "ITEM_TimeSet",
            "ITEM_InternetTime"
        ]
    },
    "InternetTime": {
        "PageTitle": "Internet time",
        "Items": [
            "TIME_SERVER",
            "TIME_ZONE",
            "TIME_AutoUpdateEnable",
            "ITEM_TimeUpdate"
        ]
    },
    "ITEM_InternetTime": {
        "type": "ITEM_text",
        "text": "Internet time",
        "link": "InternetTime"
    },
    "ITEM_DateSet": {
        "type": "ITEM_edit",
        "text": "Date",
        "PB_Name": "DATE",
        "pattern": "(^20[0-9]{2}-[0-1][0-9]-[0-3][0-9]$)|(^20[0-9]{2}[0-1][0-9][0-3][0-9]$)",
        "kp_type": "num",
        "msg": "SET_DATE"
    },
    "ITEM_TimeSet": {
        "type": "ITEM_edit",
        "text": "Time",
        "PB_Name": "TIME",
        "pattern": "(^[0-2][0-9]:[0-5][0-9]:[0-5][0-9]$)|(^[0-2][0-9][0-5][0-9][0-5][0-9]$)",
        "kp_type": "num",
        "msg": "SET_TIME"
    },
    "DATE_FORMAT": {
        "type": "Item_IO_Para",
        "ParaName": "DATE_FORMAT"
    },
    "TIME_FORMAT": {
        "type": "Item_IO_Para",
        "ParaName": "TIME_FORMAT"
    },
    "TIME_SERVER": {
        "type": "Item_IO_Para",
        "ParaName": "TIME_SERVER"
    },
    "TIME_ZONE": {
        "type": "Item_IO_Para",
        "ParaName": "TIME_ZONE"
    },
    "TIME_AutoUpdateEnable": {
        "type": "Item_IO_Para",
        "ParaName": "TIME_AutoUpdateEnable"
    },
    "ITEM_TimeUpdate": {
        "type": "ITEM_btn",
        "text": "Time update",
        "msg": "TimeUpdate"
    }
}