{
	"menu_pid": "850",
	"menu_ver": "1.0",
	"menu_desc": "202405071748",
	"page_list": {
		"main": "mainapt1",
		"code": "code03",
		"digital": "digital03",
		"namelist": "namelist01",
		"roomlist": "",
		"help": "",
		"call": "call1"
	},
	"home_page": "main"
}