{
	"ascreen": {
		"background": "main04.bin",
		"menu_type": "image",
		"page_name": "main",
		"page_title": "",
		"src_height": 800,
		"src_width": 480
	},
	"iconlist": {
		"13-t": {
			"POS": {
				"Height": 202,
				"Pos.x": 22,
				"Pos.y": 102,
				"Width": 433
			},
			"TEXT": {
				"Label_text": "",
				"text_color": 0,
				"text_size": 1
			},
			"PIC": "",
			"ICON_NAME": "INFO2",
			"type": "IMG_Info"
		},
		"18-i(Code_kp)": {
			"Function": "Code_kp",
			"Link": "",
			"POS": {
				"Height": 89,
				"Pos.x": 25,
				"Pos.y": 699,
				"Width": 434
			},
			"type": "IMG_Icon"
		},
		"5-c": {
			"CallBtn_Name": true,
			"CallBtn_Number": "0099000101",
			"Link": "",
			"POS": {
				"Height": 175,
				"Pos.x": 25,
				"Pos.y": 318,
				"Width": 207
			},
			"TEXT": {
				"Label_text": "",
				"text_color": 16777215,
				"text_size": 0
			},
			"ICON_NAME": "BTN1",
			"type": "IMG_Call"
		},
		"6-c": {
			"CallBtn_Name": true,
			"CallBtn_Number": "0099000201",
			"Link": "",
			"POS": {
				"Height": 171,
				"Pos.x": 247,
				"Pos.y": 318,
				"Width": 207
			},
			"TEXT": {
				"Label_text": "",
				"text_color": 16777215,
				"text_size": 0
			},
			"ICON_NAME": "BTN2",
			"type": "IMG_Call"
		},
		"7-c": {
			"CallBtn_Name": true,
			"CallBtn_Number": "0099000301",
			"Link": "",
			"POS": {
				"Height": 178,
				"Pos.x": 248,
				"Pos.y": 505,
				"Width": 210
			},
			"TEXT": {
				"Label_text": "",
				"text_color": 16777215,
				"text_size": 0
			},
			"ICON_NAME": "BTN3",
			"type": "IMG_Call"
		},
		"8-c": {
			"CallBtn_Name": true,
			"CallBtn_Number": "0099000401",
			"Link": "",
			"POS": {
				"Height": 170,
				"Pos.x": 26,
				"Pos.y": 512,
				"Width": 207
			},
			"TEXT": {
				"Label_text": "",
				"text_color": 16777215,
				"text_size": 0
			},
			"ICON_NAME": "BTN4",
			"type": "IMG_Call"
		}
	}
}
