{
    "MenuPson": {
        "PageTitle": "Menu Personal Config",
        "Items": [
            "BTN1_TEXT",
            "BTN1_NBR"
        ]
    },
    "BTN1_TEXT": {
        "type": "Item_IO_Para",
        "ParaName": "BTN1_TEXT"
    },
    "BTN1_NBR": {
        "type": "Item_IO_Para",
        "ParaName": "BTN1_NBR"
    }
}