{
    "NetworkSetting": {
        "PageTitle": "Network Setting",
        "Items": [
            "ITEM_LanConfig",
            "ITEM_WLanConfig"
        ]
    },
    "ITEM_LanConfig": {
        "type": "ITEM_text",
        "text": "LAN Config",
        "ext-link": "LANConfig"
    },
    "ITEM_WLanConfig": {
        "type": "ITEM_text",
        "text": "WLAN Config",
        "ext-link": "WLANSetting"
    }
}