{
    "Radar": {
        "PageTitle": "Set RaradConfig",
        "Items": [
            "RADAR_DISTANCE_LEVEL",
            "SCREEN_HIGH_BRIGHT",
            "SCREEN_LOW_BRIGHT",
            "SCREEN_HIGH_BRIGHT_TIME",
            "MENU_AUTO_RETURN_TIME",
            "RADAR_MOTION_DISTANCE_LEVEL"
        ]
    },
    "RADAR_DISTANCE_LEVEL": {
        "type": "Item_IO_Para",
        "ParaName": "RADAR_DISTANCE_LEVEL"
    },
    "SCREEN_LOW_BRIGHT": {
        "type": "Item_IO_Para",
        "ParaName": "SCREEN_LOW_BRIGHT"
    },
    "SCREEN_HIGH_BRIGHT": {
        "type": "Item_IO_Para",
        "ParaName": "SCREEN_HIGH_BRIGHT"
    },
    "RADAR_MOTION_DISTANCE_LEVEL": {
        "type": "Item_IO_Para",
        "ParaName": "RADAR_MOTION_DISTANCE_LEVEL"
    },
    "SCREEN_HIGH_BRIGHT_TIME": {
        "type": "Item_IO_Para",
        "ParaName": "SCREEN_HIGH_BRIGHT_TIME"
    },
    "MENU_AUTO_RETURN_TIME": {
        "type": "Item_IO_Para",
        "ParaName": "MENU_AUTO_RETURN_TIME"
    }
}