{
	"ICON PIC":
		[
			{"TYPE": 0, "SEL_F": 0, "SEL_B": 0, 	"FUN_F": 0, 	"FUN_B": 0, 	"EDI_F": 0, "EDI_B": 0},
			{"TYPE": 1, "SEL_F": 0, "SEL_B": 0, 	"FUN_F": 170, 	"FUN_B": 0, 	"EDI_F": 0, "EDI_B": 0},
			{"TYPE": 2, "SEL_F": 0, "SEL_B": 0, 	"FUN_F": 171, 	"FUN_B": 0, 	"EDI_F": 0, "EDI_B": 0},
			{"TYPE": 3, "SEL_F": 0, "SEL_B": 0, 	"FUN_F": 178, 	"FUN_B": 0, 	"EDI_F": 0, "EDI_B": 0},
			{"TYPE": 4, "SEL_F": 0, "SEL_B": 0,     "FUN_F": 176,   "FUN_B": 0,     "EDI_F": 0, "EDI_B": 0},
			{"TYPE": 5, "SEL_F": 0, "SEL_B": 0,     "FUN_F": 186,   "FUN_B": 0,     "EDI_F": 0, "EDI_B": 0},
			{"TYPE": 6, "SEL_F": 0, "SEL_B": 0,     "FUN_F": 187,   "FUN_B": 0,     "EDI_F": 0, "EDI_B": 0},
			{"TYPE": 7, "SEL_F": 0, "SEL_B": 0,     "FUN_F": 188,   "FUN_B": 0,     "EDI_F": 0, "EDI_B": 0},
			{"TYPE": 8, "SEL_F": 0, "SEL_B": 0,     "FUN_F": 189,   "FUN_B": 0,     "EDI_F": 0, "EDI_B": 0},
			{"TYPE": 9, "SEL_F": 0, "SEL_B": 0,     "FUN_F": 190,   "FUN_B": 0,     "EDI_F": 0, "EDI_B": 0},
			{"TYPE": 10, "SEL_F": 0, "SEL_B": 0,    "FUN_F": 191,   "FUN_B": 0,     "EDI_F": 0, "EDI_B": 0},
			{"TYPE": 11, "SEL_F": 0, "SEL_B": 0,    "FUN_F": 192,   "FUN_B": 0,     "EDI_F": 0, "EDI_B": 0},
			{"TYPE": 12, "SEL_F": 0, "SEL_B": 0,    "FUN_F": 200,   "FUN_B": 0,     "EDI_F": 0, "EDI_B": 0},
			{"TYPE": 13, "SEL_F": 0, "SEL_B": 0,    "FUN_F": 175,   "FUN_B": 0,     "EDI_F": 0, "EDI_B": 0},
			{"TYPE": 14, "SEL_F": 0, "SEL_B": 0,    "FUN_F": 177,   "FUN_B": 0,     "EDI_F": 0, "EDI_B": 0},
			{"TYPE": 15, "SEL_F": 0, "SEL_B": 0,    "FUN_F": 172,   "FUN_B": 0,     "EDI_F": 0, "EDI_B": 0},
			{"TYPE": 16, "SEL_F": 0, "SEL_B": 0,    "FUN_F": 194,   "FUN_B": 0,     "EDI_F": 0, "EDI_B": 0},
			{"TYPE": 17, "SEL_F": 0, "SEL_B": 0,    "FUN_F": 195,   "FUN_B": 0,     "EDI_F": 0, "EDI_B": 0},
			{"TYPE": 18, "SEL_F": 0, "SEL_B": 0,    "FUN_F": 195,   "FUN_B": 0,     "EDI_F": 0, "EDI_B": 0}
		],

	"LIST PIC":
		[
			{"TYPE": 0, "SEL_F": 0, "SEL_B": 0, 	"FUN_F": 0, 	"FUN_B": 0, 	"EDI_F": 0, "EDI_B": 0},
			{"TYPE": 1, "SEL_F": 0, "SEL_B": 0, 	"FUN_F": 170, 	"FUN_B": 0, 	"EDI_F": 0, "EDI_B": 0},
			{"TYPE": 2, "SEL_F": 0, "SEL_B": 0, 	"FUN_F": 171, 	"FUN_B": 0, 	"EDI_F": 0, "EDI_B": 0}
		],

	"PRE SPRITE":
		[
			{"TYPE": 0, "SPRITE": 0},
			{"TYPE": 1, "SPRITE": 84},
			{"TYPE": 2, "SPRITE": 168}
		],

	"SUF SPRITE":
		[
			{"TYPE": 0, "SPRITE": 0},
			{"TYPE": 1, "SPRITE": 94},
			{"TYPE": 2, "SPRITE": 95},
			{"TYPE": 3, "SPRITE": 96},
			{"TYPE": 4, "SPRITE": 97}	
		],

	"BACK BROUND":
		[
			{"TYPE": 0, "BG": 0},
			{"TYPE": 1, "BG": 193}
		]
}
