{
	"ascreen" : 
	{
		"background" : "main11.bin",
		"menu_type" : "image",
		"page_name" : "main",
		"page_title" : "",
		"src_height" : 800,
		"src_width" : 480
	},
	"iconlist": {
		"header": {
			"POS": {
				"Height": 73,
				"Pos.x": 5,
				"Pos.y": 3,
				"Width": 473
			},
			"TEXT": {
				"Label_text": "",
				"text_color": 16777215,
				"text_size": 1
			},
			"type": "IMG_Header"
		},
		"16-t": {
			"POS": {
				"Height": 60,
				"Pos.x": 44,
				"Pos.y": 600,
				"Width": 180
			},
			"TEXT": {
				"Label_text": "Directory",
				"text_color": 16777215,
				"text_size": 1
			},
			"type": "IMG_Label"
		},
		"18-i(Code_kp)": {
			"Function": "Code_kp",
			"Link": "",
			"POS": {
				"Height": 89,
				"Pos.x": 25,
				"Pos.y": 699,
				"Width": 434
			},
			"type": "IMG_Icon"
		},
		"12-t": {
			"POS": {
				"Height": 388,
				"Pos.x": 27,
				"Pos.y": 100,
				"Width": 430
			},
			"TEXT": {
				"Label_text": "Hu",
				"text_color": 0,
				"text_size": 1
			},
			"PIC": "info01.bin",
			"ICON_NAME": "INFO1",
			"type": "IMG_Info"
		},
		"21-t": {
			"POS": {
				"Height": 60,
				"Pos.x": 255,
				"Pos.y": 600,
				"Width": 180
			},
			"TEXT": {
				"Label_text": "Dial",
				"text_color": 16777215,
				"text_size": 1
			},
			"type": "IMG_Label"
		},
		"23-i(Digital_kp)": {
			"Function": "Digital_kp",
			"Link": "",
			"POS": {
				"Height": 173,
				"Pos.x": 247,
				"Pos.y": 510,
				"Width": 210
			},
			"type": "IMG_Icon"
		},
		"24-i(NameList)": {
			"Function": "NameList",
			"Link": "",
			"POS": {
				"Height": 173,
				"Pos.x": 23,
				"Pos.y": 508,
				"Width": 209
			},		
			"type": "IMG_Icon"
		}
	}
}
